{
	"textures": {
		"texture0": "speedsterheroes:items/ring/0",
		"texture1": "speedsterheroes:items/ring/1",
		"texture2": "speedsterheroes:items/ring/2",
		"texture3": "speedsterheroes:items/ring/3",
		"texture4": "speedsterheroes:items/ring/4",
		"texture5": "speedsterheroes:items/ring/5",
		"texture6": "speedsterheroes:items/ring/6",
		"texture7": "speedsterheroes:items/ring/7",
		"texture8": "speedsterheroes:items/ring/8",
		"texture9": "speedsterheroes:items/ring/9",
		"texture10": "speedsterheroes:items/ring/10",
		"texture11": "speedsterheroes:items/ring/11",
		"texture12": "speedsterheroes:items/ring/12",
		"texture13": "speedsterheroes:items/ring/13",
		"texture14": "speedsterheroes:items/ring/14",
		"particle": "speedsterheroes:items/ring/0"
	},
	"display": {
		"thirdperson_righthand": {
			"rotation": [ -90, 90, 0 ],
			"translation": [ 0, -1, 0 ],
			"scale": [ 0.1, 0.1, 0.1 ]
		},
		"thirdperson_lefthand": {
			"rotation": [ -90, 90, 0 ],
			"translation": [ 0, -2, 0 ],
			"scale": [ 0.1, 0.1, 0.1 ]
		},
		"ground": {
			"rotation": [ 0, 0, 0 ],
			"translation": [ -0.9, 1.7, 0 ],
			"scale": [ 0.2, 0.2, 0.2 ]
		},
		"gui": {
			"rotation": [ 30,225, 0 ],
			"translation": [ 1, 2, 0 ],
			"scale": [ 0.625, 0.625, 0.625 ]
		},
		"fixed": {
			"rotation": [ 0, 0, 0 ],
			"translation": [ -1.5, 0, 0 ],
			"scale": [ 0.3, 0.3, 0.3 ]
		},
		"firstperson_righthand": {
			"rotation": [ 0, 0, 0 ],
			"translation": [ -1.89, 0, 0 ],
			"scale": [ 0.38, 0.38, 0.38 ]
		},
		"firstperson_lefthand": {
			"rotation": [ 0, 0, 0 ],
			"translation": [ 1.89, 0, 0 ],
			"scale": [ 0.38, 0.38, 0.38 ]
		}
	},
	"elements": [
		{
			"from": [ 8.0, -4.0, 5.0 ],
			"to": [ 17.0, -3.0, 8.0 ],
			"faces": {
				"down":	{ "uv": [ 6, 12, 15, 15  ], "texture": "#texture0"},
				"up":	{ "uv": [ 6, 7, 15, 10  ], "texture": "#texture0"},
				"north":{ "uv": [ 1, 1, 10, 2  ], "texture": "#texture0"},
				"south":{ "uv": [ 1, 4, 10, 5  ], "texture": "#texture0"},
				"west":	{ "uv": [ 1, 10, 4, 11  ], "texture": "#texture0"},
				"east":	{ "uv": [ 1, 7, 4, 8  ], "texture": "#texture0"}
			}
		},
		{
			"from": [ 6.0, -3.0, 5.0 ],
			"to": [ 8.0, -2.0, 8.0 ],
			"faces": {
				"down":	{ "uv": [ 1, 9, 3, 12  ], "texture": "#texture1"},
				"up":	{ "uv": [ 1, 4, 3, 7  ], "texture": "#texture1"},
				"north":{ "uv": [ 1, 13, 3, 14  ], "texture": "#texture0"},
				"south":{ "uv": [ 12, 1, 14, 2  ], "texture": "#texture0"},
				"west":	{ "uv": [ 1, 1, 4, 2  ], "texture": "#texture1"},
				"east":	{ "uv": [ 12, 4, 15, 5  ], "texture": "#texture0"}
			}
		},
		{
			"from": [ 17.0, -3.0, 5.0 ],
			"to": [ 19.0, -2.0, 8.0 ],
			"faces": {
				"down":	{ "uv": [ 1, 9, 3, 12  ], "texture": "#texture1"},
				"up":	{ "uv": [ 1, 4, 3, 7  ], "texture": "#texture1"},
				"north":{ "uv": [ 1, 13, 3, 14  ], "texture": "#texture0"},
				"south":{ "uv": [ 12, 1, 14, 2  ], "texture": "#texture0"},
				"west":	{ "uv": [ 1, 1, 4, 2  ], "texture": "#texture1"},
				"east":	{ "uv": [ 12, 4, 15, 5  ], "texture": "#texture0"}
			}
		},
		{
			"from": [ 5.0, -2.0, 5.0 ],
			"to": [ 6.0, -1.0, 8.0 ],
			"faces": {
				"down":	{ "uv": [ 10, 9, 11, 12  ], "texture": "#texture1"},
				"up":	{ "uv": [ 10, 4, 11, 7  ], "texture": "#texture1"},
				"north":{ "uv": [ 1, 14, 2, 15  ], "texture": "#texture1"},
				"south":{ "uv": [ 4, 14, 5, 15  ], "texture": "#texture1"},
				"west":	{ "uv": [ 5, 7, 8, 8  ], "texture": "#texture1"},
				"east":	{ "uv": [ 5, 4, 8, 5  ], "texture": "#texture1"}
			}
		},
		{
			"from": [ 19.0, -2.0, 5.0 ],
			"to": [ 20.0, -1.0, 8.0 ],
			"faces": {
				"down":	{ "uv": [ 10, 9, 11, 12  ], "texture": "#texture1"},
				"up":	{ "uv": [ 10, 4, 11, 7  ], "texture": "#texture1"},
				"north":{ "uv": [ 1, 14, 2, 15  ], "texture": "#texture1"},
				"south":{ "uv": [ 4, 14, 5, 15  ], "texture": "#texture1"},
				"west":	{ "uv": [ 5, 7, 8, 8  ], "texture": "#texture1"},
				"east":	{ "uv": [ 5, 4, 8, 5  ], "texture": "#texture1"}
			}
		},
		{
			"from": [ 4.0, -1.0, 5.0 ],
			"to": [ 5.0, 1.0, 8.0 ],
			"faces": {
				"down":	{ "uv": [ 1, 9, 2, 12  ], "texture": "#texture2"},
				"up":	{ "uv": [ 13, 8, 14, 11  ], "texture": "#texture1"},
				"north":{ "uv": [ 5, 10, 6, 12  ], "texture": "#texture1"},
				"south":{ "uv": [ 13, 4, 14, 6  ], "texture": "#texture1"},
				"west":	{ "uv": [ 1, 5, 4, 7  ], "texture": "#texture2"},
				"east":	{ "uv": [ 1, 1, 4, 3  ], "texture": "#texture2"}
			}
		},
		{
			"from": [ 20.0, -1.0, 5.0 ],
			"to": [ 21.0, 1.0, 8.0 ],
			"faces": {
				"down":	{ "uv": [ 1, 9, 2, 12  ], "texture": "#texture2"},
				"up":	{ "uv": [ 13, 8, 14, 11  ], "texture": "#texture1"},
				"north":{ "uv": [ 5, 10, 6, 12  ], "texture": "#texture1"},
				"south":{ "uv": [ 13, 4, 14, 6  ], "texture": "#texture1"},
				"west":	{ "uv": [ 1, 5, 4, 7  ], "texture": "#texture2"},
				"east":	{ "uv": [ 1, 1, 4, 3  ], "texture": "#texture2"}
			}
		},
		{
			"from": [ 3.0, 1.0, 5.0 ],
			"to": [ 4.0, 10.0, 8.0 ],
			"faces": {
				"down":	{ "uv": [ 9, 12, 10, 15  ], "texture": "#texture2"},
				"up":	{ "uv": [ 6, 12, 7, 15  ], "texture": "#texture2"},
				"north":{ "uv": [ 6, 1, 7, 10  ], "texture": "#texture2"},
				"south":{ "uv": [ 9, 1, 10, 10  ], "texture": "#texture2"},
				"west":	{ "uv": [ 1, 1, 4, 10  ], "texture": "#texture3"},
				"east":	{ "uv": [ 12, 1, 15, 10  ], "texture": "#texture2"}
			}
		},
		{
			"from": [ 21.0, 1.0, 5.0 ],
			"to": [ 22.0, 10.0, 8.0 ],
			"faces": {
				"down":	{ "uv": [ 9, 12, 10, 15  ], "texture": "#texture2"},
				"up":	{ "uv": [ 6, 12, 7, 15  ], "texture": "#texture2"},
				"north":{ "uv": [ 6, 1, 7, 10  ], "texture": "#texture2"},
				"south":{ "uv": [ 9, 1, 10, 10  ], "texture": "#texture2"},
				"west":	{ "uv": [ 1, 1, 4, 10  ], "texture": "#texture3"},
				"east":	{ "uv": [ 12, 1, 15, 10  ], "texture": "#texture2"}
			}
		},
		{
			"from": [ 4.0, 10.0, 5.0 ],
			"to": [ 5.0, 12.0, 8.0 ],
			"faces": {
				"down":	{ "uv": [ 6, 10, 7, 13  ], "texture": "#texture3"},
				"up":	{ "uv": [ 6, 5, 7, 8  ], "texture": "#texture3"},
				"north":{ "uv": [ 13, 13, 14, 15  ], "texture": "#texture1"},
				"south":{ "uv": [ 12, 12, 13, 14  ], "texture": "#texture2"},
				"west":	{ "uv": [ 6, 1, 9, 3  ], "texture": "#texture3"},
				"east":	{ "uv": [ 1, 12, 4, 14  ], "texture": "#texture3"}
			}
		},
		{
			"from": [ 20.0, 10.0, 5.0 ],
			"to": [ 21.0, 12.0, 8.0 ],
			"faces": {
				"down":	{ "uv": [ 6, 10, 7, 13  ], "texture": "#texture3"},
				"up":	{ "uv": [ 6, 5, 7, 8  ], "texture": "#texture3"},
				"north":{ "uv": [ 13, 13, 14, 15  ], "texture": "#texture1"},
				"south":{ "uv": [ 12, 12, 13, 14  ], "texture": "#texture2"},
				"west":	{ "uv": [ 6, 1, 9, 3  ], "texture": "#texture3"},
				"east":	{ "uv": [ 1, 12, 4, 14  ], "texture": "#texture3"}
			}
		},
		{
			"from": [ 19.0, 12.0, 5.0 ],
			"to": [ 20.0, 13.0, 8.0 ],
			"faces": {
				"down":	{ "uv": [ 9, 10, 10, 13  ], "texture": "#texture3"},
				"up":	{ "uv": [ 9, 5, 10, 8  ], "texture": "#texture3"},
				"north":{ "uv": [ 6, 1, 7, 2  ], "texture": "#texture1"},
				"south":{ "uv": [ 7, 14, 8, 15  ], "texture": "#texture1"},
				"west":	{ "uv": [ 1, 14, 4, 15  ], "texture": "#texture2"},
				"east":	{ "uv": [ 9, 1, 12, 2  ], "texture": "#texture1"}
			}
		},
		{
			"from": [ 5.0, 12.0, 5.0 ],
			"to": [ 6.0, 13.0, 8.0 ],
			"faces": {
				"down":	{ "uv": [ 9, 10, 10, 13  ], "texture": "#texture3"},
				"up":	{ "uv": [ 9, 5, 10, 8  ], "texture": "#texture3"},
				"north":{ "uv": [ 6, 1, 7, 2  ], "texture": "#texture1"},
				"south":{ "uv": [ 7, 14, 8, 15  ], "texture": "#texture1"},
				"west":	{ "uv": [ 1, 14, 4, 15  ], "texture": "#texture2"},
				"east":	{ "uv": [ 9, 1, 12, 2  ], "texture": "#texture1"}
			}
		},
		{
			"from": [ 6.0, 12.0, 5.0 ],
			"to": [ 7.0, 14.0, 8.0 ],
			"faces": {
				"down":	{ "uv": [ 1, 6, 2, 9  ], "texture": "#texture4"},
				"up":	{ "uv": [ 1, 1, 2, 4  ], "texture": "#texture4"},
				"north":{ "uv": [ 11, 1, 12, 3  ], "texture": "#texture3"},
				"south":{ "uv": [ 12, 5, 13, 7  ], "texture": "#texture3"},
				"west":	{ "uv": [ 12, 13, 15, 15  ], "texture": "#texture3"},
				"east":	{ "uv": [ 12, 9, 15, 11  ], "texture": "#texture3"}
			}
		},
		{
			"from": [ 18.0, 12.0, 5.0 ],
			"to": [ 19.0, 14.0, 8.0 ],
			"faces": {
				"down":	{ "uv": [ 6, 11, 7, 14  ], "texture": "#texture4"},
				"up":	{ "uv": [ 4, 5, 5, 8  ], "texture": "#texture4"},
				"north":{ "uv": [ 12, 12, 13, 14  ], "texture": "#texture2"},
				"south":{ "uv": [ 14, 1, 15, 3  ], "texture": "#texture3"},
				"west":	{ "uv": [ 4, 1, 7, 3  ], "texture": "#texture4"},
				"east":	{ "uv": [ 1, 11, 4, 13  ], "texture": "#texture4"}
			}
		},
		{
			"from": [ 17.0, 12.0, 3.0 ],
			"to": [ 18.0, 14.0, 5.0 ],
			"faces": {
				"down":	{ "uv": [ 12, 1, 13, 3  ], "texture": "#texture4"},
				"up":	{ "uv": [ 12, 1, 13, 3  ], "texture": "#texture4"},
				"north":{ "uv": [ 7, 5, 8, 7  ], "texture": "#texture4"},
				"south":{ "uv": [ 9, 1, 10, 3  ], "texture": "#texture4"},
				"west":	{ "uv": [ 10, 5, 12, 7  ], "texture": "#texture4"},
				"east":	{ "uv": [ 9, 11, 11, 13  ], "texture": "#texture4"}
			}
		},
		{
			"from": [ 17.0, 12.0, 8.0 ],
			"to": [ 18.0, 14.0, 10.0 ],
			"faces": {
				"down":	{ "uv": [ 12, 1, 13, 3  ], "texture": "#texture4"},
				"up":	{ "uv": [ 12, 1, 13, 3  ], "texture": "#texture4"},
				"north":{ "uv": [ 7, 5, 8, 7  ], "texture": "#texture4"},
				"south":{ "uv": [ 9, 1, 10, 3  ], "texture": "#texture4"},
				"west":	{ "uv": [ 10, 5, 12, 7  ], "texture": "#texture4"},
				"east":	{ "uv": [ 9, 11, 11, 13  ], "texture": "#texture4"}
			}
		},
		{
			"from": [ 7.0, 12.0, 8.0 ],
			"to": [ 8.0, 14.0, 10.0 ],
			"faces": {
				"down":	{ "uv": [ 12, 1, 13, 3  ], "texture": "#texture4"},
				"up":	{ "uv": [ 12, 1, 13, 3  ], "texture": "#texture4"},
				"north":{ "uv": [ 7, 5, 8, 7  ], "texture": "#texture4"},
				"south":{ "uv": [ 9, 1, 10, 3  ], "texture": "#texture4"},
				"west":	{ "uv": [ 10, 5, 12, 7  ], "texture": "#texture4"},
				"east":	{ "uv": [ 9, 11, 11, 13  ], "texture": "#texture4"}
			}
		},
		{
			"from": [ 7.0, 12.0, 3.0 ],
			"to": [ 8.0, 14.0, 5.0 ],
			"faces": {
				"down":	{ "uv": [ 12, 1, 13, 3  ], "texture": "#texture4"},
				"up":	{ "uv": [ 12, 1, 13, 3  ], "texture": "#texture4"},
				"north":{ "uv": [ 7, 5, 8, 7  ], "texture": "#texture4"},
				"south":{ "uv": [ 9, 1, 10, 3  ], "texture": "#texture4"},
				"west":	{ "uv": [ 10, 5, 12, 7  ], "texture": "#texture4"},
				"east":	{ "uv": [ 9, 11, 11, 13  ], "texture": "#texture4"}
			}
		},
		{
			"from": [ 16.0, 12.0, 2.0 ],
			"to": [ 17.0, 14.0, 3.0 ],
			"faces": {
				"down":	{ "uv": [ 10, 14, 11, 15  ], "texture": "#texture1"},
				"up":	{ "uv": [ 10, 14, 11, 15  ], "texture": "#texture1"},
				"north":{ "uv": [ 13, 11, 14, 13  ], "texture": "#texture4"},
				"south":{ "uv": [ 13, 11, 14, 13  ], "texture": "#texture4"},
				"west":	{ "uv": [ 13, 11, 14, 13  ], "texture": "#texture4"},
				"east":	{ "uv": [ 13, 11, 14, 13  ], "texture": "#texture4"}
			}
		},
		{
			"from": [ 8.0, 12.0, 2.0 ],
			"to": [ 9.0, 14.0, 3.0 ],
			"faces": {
				"down":	{ "uv": [ 10, 14, 11, 15  ], "texture": "#texture1"},
				"up":	{ "uv": [ 10, 14, 11, 15  ], "texture": "#texture1"},
				"north":{ "uv": [ 13, 11, 14, 13  ], "texture": "#texture4"},
				"south":{ "uv": [ 13, 11, 14, 13  ], "texture": "#texture4"},
				"west":	{ "uv": [ 13, 11, 14, 13  ], "texture": "#texture4"},
				"east":	{ "uv": [ 13, 11, 14, 13  ], "texture": "#texture4"}
			}
		},
		{
			"from": [ 14.0, 12.0, 1.0 ],
			"to": [ 16.0, 14.0, 2.0 ],
			"faces": {
				"down":	{ "uv": [ 1, 12, 3, 13  ], "texture": "#texture5"},
				"up":	{ "uv": [ 1, 9, 3, 10  ], "texture": "#texture5"},
				"north":{ "uv": [ 1, 1, 3, 3  ], "texture": "#texture5"},
				"south":{ "uv": [ 1, 5, 3, 7  ], "texture": "#texture5"},
				"west":	{ "uv": [ 14, 5, 15, 7  ], "texture": "#texture4"},
				"east":	{ "uv": [ 14, 5, 15, 7  ], "texture": "#texture4"}
			}
		},
		{
			"from": [ 9.0, 12.0, 1.0 ],
			"to": [ 11.0, 14.0, 2.0 ],
			"faces": {
				"down":	{ "uv": [ 1, 12, 3, 13  ], "texture": "#texture5"},
				"up":	{ "uv": [ 1, 9, 3, 10  ], "texture": "#texture5"},
				"north":{ "uv": [ 1, 1, 3, 3  ], "texture": "#texture5"},
				"south":{ "uv": [ 1, 5, 3, 7  ], "texture": "#texture5"},
				"west":	{ "uv": [ 14, 5, 15, 7  ], "texture": "#texture4"},
				"east":	{ "uv": [ 14, 5, 15, 7  ], "texture": "#texture4"}
			}
		},
		{
			"from": [ 11.0, 12.0, 0.0 ],
			"to": [ 14.0, 14.0, 1.0 ],
			"faces": {
				"down":	{ "uv": [ 8, 12, 11, 13  ], "texture": "#texture5"},
				"up":	{ "uv": [ 8, 9, 11, 10  ], "texture": "#texture5"},
				"north":{ "uv": [ 5, 1, 8, 3  ], "texture": "#texture5"},
				"south":{ "uv": [ 5, 5, 8, 7  ], "texture": "#texture5"},
				"west":	{ "uv": [ 5, 13, 6, 15  ], "texture": "#texture5"},
				"east":	{ "uv": [ 5, 9, 6, 11  ], "texture": "#texture5"}
			}
		},
		{
			"from": [ 8.0, 12.0, 10.0 ],
			"to": [ 9.0, 14.0, 11.0 ],
			"faces": {
				"down":	{ "uv": [ 10, 14, 11, 15  ], "texture": "#texture1"},
				"up":	{ "uv": [ 10, 14, 11, 15  ], "texture": "#texture1"},
				"north":{ "uv": [ 13, 11, 14, 13  ], "texture": "#texture4"},
				"south":{ "uv": [ 13, 11, 14, 13  ], "texture": "#texture4"},
				"west":	{ "uv": [ 13, 11, 14, 13  ], "texture": "#texture4"},
				"east":	{ "uv": [ 13, 11, 14, 13  ], "texture": "#texture4"}
			}
		},
		{
			"from": [ 16.0, 12.0, 10.0 ],
			"to": [ 17.0, 14.0, 11.0 ],
			"faces": {
				"down":	{ "uv": [ 10, 14, 11, 15  ], "texture": "#texture1"},
				"up":	{ "uv": [ 10, 14, 11, 15  ], "texture": "#texture1"},
				"north":{ "uv": [ 13, 11, 14, 13  ], "texture": "#texture4"},
				"south":{ "uv": [ 13, 11, 14, 13  ], "texture": "#texture4"},
				"west":	{ "uv": [ 13, 11, 14, 13  ], "texture": "#texture4"},
				"east":	{ "uv": [ 13, 11, 14, 13  ], "texture": "#texture4"}
			}
		},
		{
			"from": [ 9.0, 12.0, 11.0 ],
			"to": [ 11.0, 14.0, 12.0 ],
			"faces": {
				"down":	{ "uv": [ 1, 12, 3, 13  ], "texture": "#texture5"},
				"up":	{ "uv": [ 1, 9, 3, 10  ], "texture": "#texture5"},
				"north":{ "uv": [ 1, 1, 3, 3  ], "texture": "#texture5"},
				"south":{ "uv": [ 1, 5, 3, 7  ], "texture": "#texture5"},
				"west":	{ "uv": [ 14, 5, 15, 7  ], "texture": "#texture4"},
				"east":	{ "uv": [ 14, 5, 15, 7  ], "texture": "#texture4"}
			}
		},
		{
			"from": [ 14.0, 12.0, 11.0 ],
			"to": [ 16.0, 14.0, 12.0 ],
			"faces": {
				"down":	{ "uv": [ 1, 12, 3, 13  ], "texture": "#texture5"},
				"up":	{ "uv": [ 1, 9, 3, 10  ], "texture": "#texture5"},
				"north":{ "uv": [ 1, 1, 3, 3  ], "texture": "#texture5"},
				"south":{ "uv": [ 1, 5, 3, 7  ], "texture": "#texture5"},
				"west":	{ "uv": [ 14, 5, 15, 7  ], "texture": "#texture4"},
				"east":	{ "uv": [ 14, 5, 15, 7  ], "texture": "#texture4"}
			}
		},
		{
			"from": [ 11.0, 12.0, 12.0 ],
			"to": [ 14.0, 14.0, 13.0 ],
			"faces": {
				"down":	{ "uv": [ 8, 12, 11, 13  ], "texture": "#texture5"},
				"up":	{ "uv": [ 8, 9, 11, 10  ], "texture": "#texture5"},
				"north":{ "uv": [ 5, 1, 8, 3  ], "texture": "#texture5"},
				"south":{ "uv": [ 5, 5, 8, 7  ], "texture": "#texture5"},
				"west":	{ "uv": [ 5, 13, 6, 15  ], "texture": "#texture5"},
				"east":	{ "uv": [ 5, 9, 6, 11  ], "texture": "#texture5"}
			}
		},
		{
			"from": [ 18.0, 12.0, 3.0 ],
			"to": [ 19.0, 13.0, 5.0 ],
			"faces": {
				"down":	{ "uv": [ 13, 9, 14, 11  ], "texture": "#texture5"},
				"up":	{ "uv": [ 13, 9, 14, 11  ], "texture": "#texture5"},
				"north":{ "uv": [ 14, 1, 15, 2  ], "texture": "#texture1"},
				"south":{ "uv": [ 10, 1, 11, 2  ], "texture": "#texture5"},
				"west":	{ "uv": [ 13, 1, 15, 2  ], "texture": "#texture5"},
				"east":	{ "uv": [ 10, 4, 12, 5  ], "texture": "#texture5"}
			}
		},
		{
			"from": [ 18.0, 12.0, 8.0 ],
			"to": [ 19.0, 13.0, 10.0 ],
			"faces": {
				"down":	{ "uv": [ 13, 9, 14, 11  ], "texture": "#texture5"},
				"up":	{ "uv": [ 13, 9, 14, 11  ], "texture": "#texture5"},
				"north":{ "uv": [ 14, 1, 15, 2  ], "texture": "#texture1"},
				"south":{ "uv": [ 10, 1, 11, 2  ], "texture": "#texture5"},
				"west":	{ "uv": [ 13, 1, 15, 2  ], "texture": "#texture5"},
				"east":	{ "uv": [ 10, 4, 12, 5  ], "texture": "#texture5"}
			}
		},
		{
			"from": [ 19.0, 10.0, 3.0 ],
			"to": [ 20.0, 12.0, 10.0 ],
			"faces": {
				"down":	{ "uv": [ 13, 1, 14, 8  ], "texture": "#texture6"},
				"up":	{ "uv": [ 10, 1, 11, 8  ], "texture": "#texture6"},
				"north":{ "uv": [ 13, 13, 14, 15  ], "texture": "#texture5"},
				"south":{ "uv": [ 14, 4, 15, 6  ], "texture": "#texture5"},
				"west":	{ "uv": [ 1, 5, 8, 7  ], "texture": "#texture6"},
				"east":	{ "uv": [ 1, 1, 8, 3  ], "texture": "#texture6"}
			}
		},
		{
			"from": [ 20.0, 1.0, 3.0 ],
			"to": [ 21.0, 10.0, 10.0 ],
			"faces": {
				"down":	{ "uv": [ 13, 1, 14, 8  ], "texture": "#texture8"},
				"up":	{ "uv": [ 10, 1, 11, 8  ], "texture": "#texture8"},
				"north":{ "uv": [ 1, 1, 2, 10  ], "texture": "#texture7"},
				"south":{ "uv": [ 4, 1, 5, 10  ], "texture": "#texture7"},
				"west":	{ "uv": [ 1, 1, 8, 10  ], "texture": "#texture8"},
				"east":	{ "uv": [ 7, 1, 14, 10  ], "texture": "#texture7"}
			}
		},
		{
			"from": [ 19.0, -1.0, 3.5 ],
			"to": [ 20.0, 1.0, 9.5 ],
			"faces": {
				"down":	{ "uv": [ 7, 9, 8, 15  ], "texture": "#texture6"},
				"up":	{ "uv": [ 4, 9, 5, 15  ], "texture": "#texture6"},
				"north":{ "uv": [ 1, 9, 2, 11  ], "texture": "#texture6"},
				"south":{ "uv": [ 1, 13, 2, 15  ], "texture": "#texture6"},
				"west":	{ "uv": [ 9, 12, 15, 14  ], "texture": "#texture7"},
				"east":	{ "uv": [ 1, 12, 7, 14  ], "texture": "#texture7"}
			}
		},
		{
			"from": [ 17.0, -2.0, 3.5 ],
			"to": [ 19.0, -1.0, 9.5 ],
			"faces": {
				"down":	{ "uv": [ 1, 9, 3, 15  ], "texture": "#texture9"},
				"up":	{ "uv": [ 1, 1, 3, 7  ], "texture": "#texture9"},
				"north":{ "uv": [ 10, 10, 12, 11  ], "texture": "#texture6"},
				"south":{ "uv": [ 10, 13, 12, 14  ], "texture": "#texture6"},
				"west":	{ "uv": [ 9, 12, 15, 13  ], "texture": "#texture8"},
				"east":	{ "uv": [ 1, 12, 7, 13  ], "texture": "#texture8"}
			}
		},
		{
			"from": [ 8.0, -3.0, 3.5 ],
			"to": [ 17.0, -2.0, 9.5 ],
			"faces": {
				"down":	{ "uv": [ 1, 9, 10, 15  ], "texture": "#texture10"},
				"up":	{ "uv": [ 1, 1, 10, 7  ], "texture": "#texture10"},
				"north":{ "uv": [ 5, 1, 14, 2  ], "texture": "#texture9"},
				"south":{ "uv": [ 5, 4, 14, 5  ], "texture": "#texture9"},
				"west":	{ "uv": [ 5, 10, 11, 11  ], "texture": "#texture9"},
				"east":	{ "uv": [ 5, 7, 11, 8  ], "texture": "#texture9"}
			}
		},
		{
			"from": [ 6.0, -2.0, 3.5 ],
			"to": [ 8.0, -1.0, 9.5 ],
			"faces": {
				"down":	{ "uv": [ 1, 9, 3, 15  ], "texture": "#texture9"},
				"up":	{ "uv": [ 1, 1, 3, 7  ], "texture": "#texture9"},
				"north":{ "uv": [ 10, 10, 12, 11  ], "texture": "#texture6"},
				"south":{ "uv": [ 10, 13, 12, 14  ], "texture": "#texture6"},
				"west":	{ "uv": [ 9, 12, 15, 13  ], "texture": "#texture8"},
				"east":	{ "uv": [ 1, 12, 7, 13  ], "texture": "#texture8"}
			}
		},
		{
			"from": [ 5.0, -1.0, 3.5 ],
			"to": [ 6.0, 1.0, 9.5 ],
			"faces": {
				"down":	{ "uv": [ 7, 9, 8, 15  ], "texture": "#texture6"},
				"up":	{ "uv": [ 4, 9, 5, 15  ], "texture": "#texture6"},
				"north":{ "uv": [ 1, 9, 2, 11  ], "texture": "#texture6"},
				"south":{ "uv": [ 1, 13, 2, 15  ], "texture": "#texture6"},
				"west":	{ "uv": [ 9, 12, 15, 14  ], "texture": "#texture7"},
				"east":	{ "uv": [ 1, 12, 7, 14  ], "texture": "#texture7"}
			}
		},
		{
			"from": [ 4.0, 1.0, 3.0 ],
			"to": [ 5.0, 10.0, 10.0 ],
			"faces": {
				"down":	{ "uv": [ 13, 1, 14, 8  ], "texture": "#texture8"},
				"up":	{ "uv": [ 10, 1, 11, 8  ], "texture": "#texture8"},
				"north":{ "uv": [ 1, 1, 2, 10  ], "texture": "#texture7"},
				"south":{ "uv": [ 4, 1, 5, 10  ], "texture": "#texture7"},
				"west":	{ "uv": [ 1, 1, 8, 10  ], "texture": "#texture8"},
				"east":	{ "uv": [ 7, 1, 14, 10  ], "texture": "#texture7"}
			}
		},
		{
			"from": [ 5.0, 10.0, 3.0 ],
			"to": [ 6.0, 12.0, 10.0 ],
			"faces": {
				"down":	{ "uv": [ 13, 1, 14, 8  ], "texture": "#texture6"},
				"up":	{ "uv": [ 10, 1, 11, 8  ], "texture": "#texture6"},
				"north":{ "uv": [ 13, 13, 14, 15  ], "texture": "#texture5"},
				"south":{ "uv": [ 14, 4, 15, 6  ], "texture": "#texture5"},
				"west":	{ "uv": [ 1, 5, 8, 7  ], "texture": "#texture6"},
				"east":	{ "uv": [ 1, 1, 8, 3  ], "texture": "#texture6"}
			}
		},
		{
			"from": [ 6.0, 12.0, 3.0 ],
			"to": [ 7.0, 13.0, 5.0 ],
			"faces": {
				"down":	{ "uv": [ 13, 9, 14, 11  ], "texture": "#texture5"},
				"up":	{ "uv": [ 13, 9, 14, 11  ], "texture": "#texture5"},
				"north":{ "uv": [ 14, 1, 15, 2  ], "texture": "#texture1"},
				"south":{ "uv": [ 10, 1, 11, 2  ], "texture": "#texture5"},
				"west":	{ "uv": [ 13, 1, 15, 2  ], "texture": "#texture5"},
				"east":	{ "uv": [ 10, 4, 12, 5  ], "texture": "#texture5"}
			}
		},
		{
			"from": [ 6.0, 12.0, 8.0 ],
			"to": [ 7.0, 13.0, 10.0 ],
			"faces": {
				"down":	{ "uv": [ 13, 9, 14, 11  ], "texture": "#texture5"},
				"up":	{ "uv": [ 13, 9, 14, 11  ], "texture": "#texture5"},
				"north":{ "uv": [ 14, 1, 15, 2  ], "texture": "#texture1"},
				"south":{ "uv": [ 10, 1, 11, 2  ], "texture": "#texture5"},
				"west":	{ "uv": [ 13, 1, 15, 2  ], "texture": "#texture5"},
				"east":	{ "uv": [ 10, 4, 12, 5  ], "texture": "#texture5"}
			}
		},
		{
			"from": [ 7.0, 12.0, 10.0 ],
			"to": [ 8.0, 13.0, 11.0 ],
			"faces": {
				"down":	{ "uv": [ 14, 13, 15, 14  ], "texture": "#texture6"},
				"up":	{ "uv": [ 14, 13, 15, 14  ], "texture": "#texture6"},
				"north":{ "uv": [ 14, 10, 15, 11  ], "texture": "#texture6"},
				"south":{ "uv": [ 14, 10, 15, 11  ], "texture": "#texture6"},
				"west":	{ "uv": [ 14, 10, 15, 11  ], "texture": "#texture6"},
				"east":	{ "uv": [ 14, 10, 15, 11  ], "texture": "#texture6"}
			}
		},
		{
			"from": [ 7.0, 12.0, 2.0 ],
			"to": [ 8.0, 13.0, 3.0 ],
			"faces": {
				"down":	{ "uv": [ 14, 13, 15, 14  ], "texture": "#texture6"},
				"up":	{ "uv": [ 14, 13, 15, 14  ], "texture": "#texture6"},
				"north":{ "uv": [ 14, 10, 15, 11  ], "texture": "#texture6"},
				"south":{ "uv": [ 14, 10, 15, 11  ], "texture": "#texture6"},
				"west":	{ "uv": [ 14, 10, 15, 11  ], "texture": "#texture6"},
				"east":	{ "uv": [ 14, 10, 15, 11  ], "texture": "#texture6"}
			}
		},
		{
			"from": [ 17.0, 12.0, 10.0 ],
			"to": [ 18.0, 13.0, 11.0 ],
			"faces": {
				"down":	{ "uv": [ 14, 13, 15, 14  ], "texture": "#texture6"},
				"up":	{ "uv": [ 14, 13, 15, 14  ], "texture": "#texture6"},
				"north":{ "uv": [ 14, 10, 15, 11  ], "texture": "#texture6"},
				"south":{ "uv": [ 14, 10, 15, 11  ], "texture": "#texture6"},
				"west":	{ "uv": [ 14, 10, 15, 11  ], "texture": "#texture6"},
				"east":	{ "uv": [ 14, 10, 15, 11  ], "texture": "#texture6"}
			}
		},
		{
			"from": [ 17.0, 12.0, 2.0 ],
			"to": [ 18.0, 13.0, 3.0 ],
			"faces": {
				"down":	{ "uv": [ 14, 13, 15, 14  ], "texture": "#texture6"},
				"up":	{ "uv": [ 14, 13, 15, 14  ], "texture": "#texture6"},
				"north":{ "uv": [ 14, 10, 15, 11  ], "texture": "#texture6"},
				"south":{ "uv": [ 14, 10, 15, 11  ], "texture": "#texture6"},
				"west":	{ "uv": [ 14, 10, 15, 11  ], "texture": "#texture6"},
				"east":	{ "uv": [ 14, 10, 15, 11  ], "texture": "#texture6"}
			}
		},
		{
			"from": [ 17.0, 12.0, 5.0 ],
			"to": [ 18.0, 13.0, 8.0 ],
			"faces": {
				"down":	{ "uv": [ 12, 4, 13, 7  ], "texture": "#texture10"},
				"up":	{ "uv": [ 13, 7, 14, 10  ], "texture": "#texture9"},
				"north":{ "uv": [ 5, 13, 6, 14  ], "texture": "#texture9"},
				"south":{ "uv": [ 8, 13, 9, 14  ], "texture": "#texture9"},
				"west":	{ "uv": [ 12, 1, 15, 2  ], "texture": "#texture10"},
				"east":	{ "uv": [ 11, 13, 14, 14  ], "texture": "#texture9"}
			}
		},
		{
			"from": [ 7.0, 12.0, 5.0 ],
			"to": [ 8.0, 13.0, 8.0 ],
			"faces": {
				"down":	{ "uv": [ 1, 12, 2, 15  ], "texture": "#texture11"},
				"up":	{ "uv": [ 1, 7, 2, 10  ], "texture": "#texture11"},
				"north":{ "uv": [ 12, 9, 13, 10  ], "texture": "#texture10"},
				"south":{ "uv": [ 12, 12, 13, 13  ], "texture": "#texture10"},
				"west":	{ "uv": [ 1, 4, 4, 5  ], "texture": "#texture11"},
				"east":	{ "uv": [ 1, 1, 4, 2  ], "texture": "#texture11"}
			}
		},
		{
			"from": [ 8.0, 12.0, 3.0 ],
			"to": [ 17.0, 13.0, 10.0 ],
			"faces": {
				"down":	{ "uv": [ 1, 1, 10, 8  ], "texture": "#texture13"},
				"up":	{ "uv": [ 1, 1, 10, 8  ], "texture": "#texture12"},
				"north":{ "uv": [ 4, 7, 13, 8  ], "texture": "#texture11"},
				"south":{ "uv": [ 4, 10, 13, 11  ], "texture": "#texture11"},
				"west":	{ "uv": [ 6, 1, 13, 2  ], "texture": "#texture11"},
				"east":	{ "uv": [ 4, 13, 11, 14  ], "texture": "#texture11"}
			}
		},
		{
			"from": [ 9.0, 12.0, 10.0 ],
			"to": [ 16.0, 13.0, 11.0 ],
			"faces": {
				"down":	{ "uv": [ 1, 10, 8, 11  ], "texture": "#texture13"},
				"up":	{ "uv": [ 4, 13, 11, 14  ], "texture": "#texture12"},
				"north":{ "uv": [ 6, 4, 13, 5  ], "texture": "#texture11"},
				"south":{ "uv": [ 1, 10, 8, 11  ], "texture": "#texture12"},
				"west":	{ "uv": [ 1, 13, 2, 14  ], "texture": "#texture12"},
				"east":	{ "uv": [ 13, 13, 14, 14  ], "texture": "#texture11"}
			}
		},
		{
			"from": [ 9.0, 12.0, 2.0 ],
			"to": [ 16.0, 13.0, 3.0 ],
			"faces": {
				"down":	{ "uv": [ 1, 10, 8, 11  ], "texture": "#texture13"},
				"up":	{ "uv": [ 4, 13, 11, 14  ], "texture": "#texture12"},
				"north":{ "uv": [ 6, 4, 13, 5  ], "texture": "#texture11"},
				"south":{ "uv": [ 1, 10, 8, 11  ], "texture": "#texture12"},
				"west":	{ "uv": [ 1, 13, 2, 14  ], "texture": "#texture12"},
				"east":	{ "uv": [ 13, 13, 14, 14  ], "texture": "#texture11"}
			}
		},
		{
			"from": [ 11.0, 12.0, 11.0 ],
			"to": [ 14.0, 13.0, 12.0 ],
			"faces": {
				"down":	{ "uv": [ 6, 13, 9, 14  ], "texture": "#texture13"},
				"up":	{ "uv": [ 1, 13, 4, 14  ], "texture": "#texture13"},
				"north":{ "uv": [ 10, 10, 13, 11  ], "texture": "#texture12"},
				"south":{ "uv": [ 12, 1, 15, 2  ], "texture": "#texture12"},
				"west":	{ "uv": [ 12, 7, 13, 8  ], "texture": "#texture12"},
				"east":	{ "uv": [ 12, 4, 13, 5  ], "texture": "#texture12"}
			}
		},
		{
			"from": [ 11.0, 12.0, 1.0 ],
			"to": [ 14.0, 13.0, 2.0 ],
			"faces": {
				"down":	{ "uv": [ 6, 13, 9, 14  ], "texture": "#texture13"},
				"up":	{ "uv": [ 1, 13, 4, 14  ], "texture": "#texture13"},
				"north":{ "uv": [ 10, 10, 13, 11  ], "texture": "#texture12"},
				"south":{ "uv": [ 12, 1, 15, 2  ], "texture": "#texture12"},
				"west":	{ "uv": [ 12, 7, 13, 8  ], "texture": "#texture12"},
				"east":	{ "uv": [ 12, 4, 13, 5  ], "texture": "#texture12"}
			}
		},
		{
			"from": [ 11.5, 12.5, 4.0 ],
			"to": [ 13.5, 13.5, 9.0 ],
			"faces": {
				"down":	{ "uv": [ 1, 7, 3, 12  ], "texture": "#texture14"},
				"up":	{ "uv": [ 12, 1, 14, 6  ], "texture": "#texture13"},
				"north":{ "uv": [ 13, 13, 15, 14  ], "texture": "#texture12"},
				"south":{ "uv": [ 10, 10, 12, 11  ], "texture": "#texture13"},
				"west":	{ "uv": [ 1, 4, 6, 5  ], "texture": "#texture14"},
				"east":	{ "uv": [ 1, 1, 6, 2  ], "texture": "#texture14"}
			}
		},
		{
			"from": [ 12.5, 12.5, 7.0 ],
			"to": [ 14.5, 13.5, 11.0 ],
			"faces": {
				"down":	{ "uv": [ 11, 7, 13, 11  ], "texture": "#texture14"},
				"up":	{ "uv": [ 8, 1, 10, 5  ], "texture": "#texture14"},
				"north":{ "uv": [ 11, 13, 13, 14  ], "texture": "#texture13"},
				"south":{ "uv": [ 1, 14, 3, 15  ], "texture": "#texture14"},
				"west":	{ "uv": [ 5, 10, 9, 11  ], "texture": "#texture14"},
				"east":	{ "uv": [ 5, 7, 9, 8  ], "texture": "#texture14"}
			}
		},
		{
			"from": [ 10.5, 12.5, 2.0 ],
			"to": [ 12.5, 13.5, 6.0 ],
			"faces": {
				"down":	{ "uv": [ 11, 7, 13, 11  ], "texture": "#texture14"},
				"up":	{ "uv": [ 8, 1, 10, 5  ], "texture": "#texture14"},
				"north":{ "uv": [ 11, 13, 13, 14  ], "texture": "#texture13"},
				"south":{ "uv": [ 1, 14, 3, 15  ], "texture": "#texture14"},
				"west":	{ "uv": [ 5, 10, 9, 11  ], "texture": "#texture14"},
				"east":	{ "uv": [ 5, 7, 9, 8  ], "texture": "#texture14"}
			}
		}
	]
}